…
    line, 
    station_location,
    station_name, 
    station_latitude, 
    station_longitude, 
    route, 
    entry, 
    vending, 
    entrance_type, 
    ada
  ) |>
  mutate(entry = ifelse(entry == "YES", TRUE, FALSE))
```

    ## # A tibble: 20,548 × 10
    ##    line   station_location station_name station_latitude station_longitude route
    ##    <chr>  <chr>            <chr>                   <dbl>             <dbl> <chr>
    ##  1 4 Ave… (40.660397, -73… 25th St                  40.7             -74.0 rout…
    ##  2 4 Ave… (40.660397, -73… 25th St                  40.7             -74.0 rout…
    ##  3 4 Ave… (40.660397, -73… 25th St                  40.7             -74.0 rout…
    ##  4 4 Ave… (40.660397, -73… 25th St                  40.7             -74.0 rout…
    ##  5 4 Ave… (40.660397, -73… 25th St                  40.7             -74.0 rout…
    ##  6 4 Ave… (40.660397, -73… 25th St                  40.7             -74.0 rout…
    ##  7 4 Ave… (40.660397, -73… 25th St                  40.7             -74.0 rout…
    ##  8 4 Ave… (40.660397, -73… 25th St                  40.7             -74.0 rout…
    ##  9 4 Ave… (40.660397, -73… 25th St                  40.7             -74.0 rout…
    ## 10 4 Ave… (40.660397, -73… 25th St                  40.7             -74.0 rout…
    ## # ℹ 20,538 more rows
    ## # ℹ 4 more variables: entry <lgl>, vending <chr>, entrance_type <chr>,
    ## #   ada <lgl>
…
